…
$Bac_Bulk$class_table
# A tibble: 32 x 5
   Class               mean_imp imp_sd     n linear_biomass_corr
   <chr>                  <dbl>  <dbl> <dbl>               <dbl>
 1 Bacilli                 4.62  1.02     29              0.160 
 2 Alphaproteobacteria     5.00  1.09     20              0.105 
 3 Gammaproteobacteria     4.63  0.834    18              0.0789
 4 Verrucomicrobiae        5.71  1.70     18              0.209 
 5 Bacteroidia             5.16  1.14     17              0.211 
 6 Planctomycetes          5.12  1.23      9              0.242 
 7 Actinobacteria          4.05  0.479     7              0.239 
 8 Acidobacteriae          4.41  0.684     6              0.110 
 9 Acidimicrobiia          4.71  0.553     4              0.275 
10 Gemmatimonadetes        4.96  1.24      4              0.337 
# ... with 22 more rows
# i Use `print(n = ...)` to see more rows

$Bac_Bulk$order_table
# A tibble: 64 x 5
   Order              mean_imp imp_sd     n linear_biomass_corr
   <chr>                 <dbl>  <dbl> <dbl>               <dbl>
 1 Bacillales             4.50  1.06     20               0.174
 2 Burkholderiales        4.79  0.769    12               0.149
 3 Pedosphaerales         5.13  1.17     11               0.220
 4 Rhizobiales            5.03  1.36     10               0.120
 5 Chitinophagales        5.54  1.17      7               0.198
 6 Paenibacillales        5.00  0.947     7               0.144
 7 Sphingobacteriales     4.96  1.28      5               0.213
 8 Cytophagales           4.56  0.591     4               0.221
 9 Gemmatimonadales       4.96  1.24      4               0.337
10 Opitutales             7.09  2.14      4               0.294
# ... with 54 more rows
# i Use `print(n = ...)` to see more rows

$Bac_Bulk$family_table
# A tibble: 77 x 5
   Family            mean_imp imp_sd     n linear_biomass_corr
   <chr>                <dbl>  <dbl> <dbl>               <dbl>
 1 Bacillaceae           4.36  0.942    18               0.181
 2 Pedosphaeraceae       5.13  1.17     11               0.220
 3 Oxalobacteraceae      4.89  0.760     9               0.140
 4 Chitinophagaceae      5.54  1.17      7               0.198
 5 Paenibacillaceae      5.00  0.947     7               0.144
 6 uncultured            4.46  1.01      5               0.126
 7 Gemmatimonadaceae     4.96  1.24      4               0.337
 8 Nocardioidaceae       4.05  0.451     4               0.190
 9 Opitutaceae           7.09  2.14      4               0.294
10 Rhizobiaceae          4.63  0.752     4               0.178
# ... with 67 more rows
# i Use `print(n = ...)` to see more rows

$Bac_Bulk$genus_table
# A tibble: 89 x 5
   Genus           mean_imp imp_sd     n linear_biomass_corr
   <chr>              <dbl>  <dbl> <dbl>               <dbl>
 1 uncultured          5.20  1.54     21               0.161
 2 <NA>                4.63  0.881    14               0.132
 3 Pedosphaeraceae     5.36  1.25      7               0.341
 4 Paenibacillus       5.10  0.909     5               0.154
 5 Bacillus            3.72  0.377     4               0.178
 6 Gemmatimonas        4.96  1.24      4               0.337
 7 Adhaeribacter       4.44  0.637     3               0.358
 8 IMCC26256           4.61  0.608     3               0.255
 9 Massilia            4.23  0.250     3               0.161
10 Nocardioides        3.87  0.371     3               0.268
# ... with 79 more rows
# i Use `print(n = ...)` to see more rows
…
$Bac_Rhizo$class_table
# A tibble: 29 x 5
   Class               mean_imp imp_sd     n linear_biomass_corr
   <chr>                  <dbl>  <dbl> <dbl>               <dbl>
 1 Bacilli                 5.03  1.47     50            -0.00224
 2 Alphaproteobacteria     4.64  0.594    21             0.0876 
 3 Bacteroidia             4.95  0.983    17             0.174  
 4 Gammaproteobacteria     4.90  1.10     17             0.00202
 5 Acidobacteriae          5.21  1.26     10            -0.0164 
 6 Verrucomicrobiae        4.27  0.774    10             0.0479 
 7 Planctomycetes          4.95  1.57      7             0.209  
 8 Phycisphaerae           4.88  1.46      6             0.218  
 9 Actinobacteria          5.15  2.24      5            -0.110  
10 Bdellovibrionia         5.48  1.47      5            -0.180  
# ... with 19 more rows
# i Use `print(n = ...)` to see more rows

$Bac_Rhizo$order_table
# A tibble: 56 x 5
   Order              mean_imp imp_sd     n linear_biomass_corr
   <chr>                 <dbl>  <dbl> <dbl>               <dbl>
 1 Bacillales             4.80  1.09     35            -0.00815
 2 Paenibacillales        5.65  2.06     13             0.0874 
 3 Rhizobiales            4.63  0.634    11             0.142  
 4 Chitinophagales        4.87  1.03     10             0.168  
 5 Burkholderiales        5.57  1.43      6            -0.225  
 6 Tepidisphaerales       4.88  1.46      6             0.218  
 7 Micropepsales          5.02  0.424     5             0.0915 
 8 Pedosphaerales         4.48  0.756     5            -0.00454
 9 Chthoniobacterales     4.19  0.772     4             0.114  
10 Gemmatimonadales       3.93  0.317     4            -0.0227 
# ... with 46 more rows
# i Use `print(n = ...)` to see more rows

$Bac_Rhizo$family_table
# A tibble: 71 x 5
   Family            mean_imp imp_sd     n linear_biomass_corr
   <chr>                <dbl>  <dbl> <dbl>               <dbl>
 1 Bacillaceae           4.87  1.20     28             0.00621
 2 Paenibacillaceae      5.65  2.06     13             0.0874 
 3 Chitinophagaceae      4.87  1.03     10             0.168  
 4 uncultured            4.80  1.37      6            -0.144  
 5 Micropepsaceae        5.02  0.424     5             0.0915 
 6 Pedosphaeraceae       4.48  0.756     5            -0.00454
 7 Planococcaceae        4.67  0.304     5            -0.227  
 8 Xanthobacteraceae     4.71  0.731     5             0.168  
 9 Gemmatimonadaceae     3.93  0.317     4            -0.0227 
10 Subgroup_2            6.46  0.991     4            -0.347  
# ... with 61 more rows
# i Use `print(n = ...)` to see more rows

$Bac_Rhizo$genus_table
# A tibble: 86 x 5
   Genus          mean_imp imp_sd     n linear_biomass_corr
   <chr>             <dbl>  <dbl> <dbl>               <dbl>
 1 uncultured         4.56  0.882    31              0.119 
 2 Bacillus           5.05  0.892    12             -0.134 
 3 <NA>               5.39  2.06     11              0.0954
 4 Paenibacillus      6.65  2.53      6              0.109 
 5 Sporosarcina       4.56  0.243     4             -0.251 
 6 Subgroup_2         6.46  0.991     4             -0.347 
 7 Arenimonas         4.50  0.341     3             -0.354 
 8 Bdellovibrio       6.32  1.33      3             -0.161 
 9 Chthoniobacter     4.37  0.814     3              0.132 
10 Cohnella           4.80  1.21      3              0.350 
# ... with 76 more rows
# i Use `print(n = ...)` to see more rows
…
$Fun_Bulk$family_table
# A tibble: 22 x 5
   Family          mean_imp imp_sd     n linear_biomass_corr
   <chr>              <dbl>  <dbl> <dbl>               <dbl>
 1 <NA>                8.94  4.23      5             -0.0653
 2 unidentified       15.5   5.73      4             -0.0189
 3 Chaetomiaceae       9.72  1.27      3             -0.0268
 4 Mortierellaceae     8.70  0.977     3             -0.166 
 5 Nectriaceae         7.29  1.06      2             -0.140 
 6 Trichocomaceae     12.0   2.16      2             -0.137 
 7 Agaricaceae         6.78  0         1             -0.210 
 8 Apiosporaceae       6.02  0         1             -0.179 
 9 Aspergillaceae      8.06  0         1             -0.121 
10 Bionectriaceae      7.44  0         1             -0.198 
# ... with 12 more rows
# i Use `print(n = ...)` to see more rows

$Fun_Bulk$genus_table
# A tibble: 22 x 5
   Genus          mean_imp imp_sd     n linear_biomass_corr
   <chr>             <dbl>  <dbl> <dbl>               <dbl>
 1 <NA>               8.35  3.74      7             -0.0409
 2 unidentified      13.7   6.28      5             -0.0110
 3 Mortierella        8.70  0.977     3             -0.166 
 4 Nectria            7.29  1.06      2             -0.140 
 5 Arthrinium         6.02  0         1             -0.179 
 6 Clonostachys       7.44  0         1             -0.198 
 7 Emericellopsis     5.27  0         1             -0.207 
 8 Humicola          10.3   0         1             -0.0534
 9 Leptodontidium    10.9   0         1             -0.198 
10 Leucoagaricus      6.78  0         1             -0.210 
# ... with 12 more rows
# i Use `print(n = ...)` to see more rows
…
